<svg width="100" height="100" viewBox="0 0 100 100" fill="none" xmlns="http://www.w3.org/2000/svg">
<g clip-path="url(#clip0)">
<path d="M50 100C77.1894 100 99.2308 77.9586 99.2308 50.7692C99.2308 23.5798 77.1894 1.53845 50 1.53845C22.8106 1.53845 0.769226 23.5798 0.769226 50.7692C0.769226 77.9586 22.8106 100 50 100Z" fill="#11AFF1"/>
<path d="M43.1735 73.9461H56.4616H43.1735ZM56.4616 74.004H43.1735C41.9471 74.004 40.966 75.002 40.966 76.217C40.966 77.432 41.9615 78.43 43.1735 78.43C43.1735 80.8889 45.1501 82.8705 47.6029 82.8705H52.0322C54.485 82.8705 56.4616 80.8889 56.4616 78.43C57.688 78.43 58.6691 77.432 58.6691 76.217C58.6691 75.002 57.688 74.004 56.4616 74.004ZM71.9572 40.6496C71.9572 28.3984 62.0452 18.4615 49.8248 18.4615C37.6043 18.4615 27.6923 28.3984 27.6923 40.6496C27.6923 48.8508 32.1794 55.9238 38.7585 59.7712V67.2926C38.7585 69.737 40.7352 71.7331 43.1879 71.7331H56.476C58.9144 71.7331 60.9054 69.7515 60.9054 67.2926V59.7712C67.4846 55.9238 71.9572 48.8363 71.9572 40.6496Z" fill="white"/>
</g>
<defs>
<clipPath id="clip0">
<rect width="100" height="100" fill="white"/>
</clipPath>
</defs>
</svg>
